Datos espaciales con R
…
```r
## Puntos
*aeropuertos <- read_sf("data/BCN500_0606P_AEROP_AEROD.shp")
aeropuertos
```

```
## Simple feature collection with 102 features and 5 fields
## geometry type:  POINT
## dimension:      XYZ
## bbox:           xmin: -17.89353 ymin: 27.80845 xmax: 4.211772 ymax: 43.91356
## z_range:        zmin: 0 zmax: 0
## geographic CRS: Europe ETRS 89 (EUREF 89 System), Latitude-Longitude; Degrees
## # A tibble: 102 x 6
##       ID ID_CODIGO FECHA_ALTA     TIPO_0606 ETIQUETA                 geometry
##    <dbl> <chr>     <chr>          <chr>     <chr>                 <POINT [°]>
##  1     1 0606P     20091223000000 01        AEROP    Z (-5.345102 36.15061 0)
##  2     2 0606P     20091223000000 01        AEROP    Z (-4.496404 36.67687 0)
##  3     3 0606P     20091223000000 01        AEROP    Z (-3.778217 37.17579 0)
##  4     4 0606P     20091223000000 01        AEROP    Z (-2.359821 36.84331 0)
##  5     5 0606P     20091223000000 01        AEROP     Z (-4.84883 37.83674 0)
##  6     6 0606P     20091223000000 01        AEROP    Z (-1.040987 41.66157 0)
##  7     7 0606P     20091223000000 01        AEROP    Z (-6.030386 43.56352 0)
##  8     8 0606P     20091223000000 01        AEROP    Z (-3.819026 43.42818 0)
##  9     9 0606P     20091223000000 01        AEROP    Z (-5.501317 40.95517 0)
## 10    10 0606P     20091223000000 01        AEROP    Z (-4.867205 41.70134 0)
## # ... with 92 more rows
```
…
